<svg viewBox="0 0 24 24" width="24" height="24" xmlns="http://www.w3.org/2000/svg" fill="currentColor">
    <path d="m16.5859 8.94987c-.391.39-1.023.39-1.414 0-.391-.391-.391-1.024 0-1.415l1.414-1.414-1.414-1.414c-.391-.39-.391-1.024 0-1.414s1.023-.39 1.414 0l1.414 1.414 1.414-1.414c.391-.39 1.024-.39 1.414 0 .391.39.391 1.024 0 1.414l-1.414 1.414 1.414 1.414c.391.391.391 1.024 0 1.415-.39.39-1.023.39-1.414 0l-1.414-1.415zm-7.5859-3.8286h-6c-.552 0-1 .448-1 1s.448 1 1 1h6c.552 0 1-.448 1-1s-.448-1-1-1zm0 11.00003h-2v-2c0-.553-.448-1-1-1s-1 .447-1 1v2h-2c-.552 0-1 .447-1 1s.448 1 1 1h2v2c0 .553.448 1 1 1s1-.447 1-1v-2h2c.552 0 1-.447 1-1s-.448-1-1-1zm6 2h6c.553 0 1 .447 1 1s-.447 1-1 1h-6c-.553 0-1-.447-1-1s.447-1 1-1zm0-2h6c.553 0 1-.447 1-1s-.447-1-1-1h-6c-.553 0-1 .447-1 1s.447 1 1 1z"/>
</svg>
