<svg width="24" height="24" viewBox="0 0 24 24" fill="none" xmlns="http://www.w3.org/2000/svg">
<path fill-rule="evenodd" clip-rule="evenodd" d="M12 24C18.6276 24 24 18.6276 24 12C24 5.3724 18.6276 0 12 0C5.3724 0 0 5.3724 0 12C0 18.6276 5.3724 24 12 24ZM6.7056 6.3444V10.4268C7.3272 9.6864 8.0712 9.3132 8.9352 9.3132C9.3804 9.3132 9.7788 9.3984 10.1364 9.5664C10.4952 9.7344 10.7628 9.9492 10.944 10.2096C11.1264 10.4736 11.2488 10.7616 11.3148 11.0796C11.3808 11.3964 11.4144 11.8884 11.4144 12.5568V16.9212H9.4836V12.99C9.4836 12.21 9.4488 11.7156 9.3756 11.5056C9.3024 11.2944 9.1728 11.1276 8.988 11.0064C8.802 10.8804 8.5704 10.8192 8.2908 10.8192C7.9716 10.8192 7.6836 10.8996 7.434 11.058C7.1796 11.2176 6.996 11.4576 6.8796 11.7768C6.762 12.0972 6.7032 12.5688 6.7056 13.1952L6.7032 16.9224H4.7748V6.3456H6.7056V6.3444ZM14.3088 6.3444V10.4268C14.9304 9.6864 15.6744 9.3132 16.5384 9.3132C16.9812 9.3132 17.3832 9.3984 17.7408 9.5664C18.0972 9.7344 18.366 9.9492 18.546 10.2096C18.7284 10.4736 18.852 10.7616 18.9168 11.0796C18.9828 11.3964 19.0164 11.8884 19.0164 12.5568V16.9212H17.088V12.99C17.088 12.21 17.052 11.7156 16.9776 11.5056C16.9044 11.2944 16.776 11.1276 16.5888 11.0064C16.4052 10.8804 16.1712 10.8192 15.8916 10.8192C15.5724 10.8192 15.2856 10.8996 15.0348 11.058C14.7828 11.2176 14.5992 11.4576 14.4816 11.7768C14.3664 12.0972 14.3076 12.5688 14.3076 13.1952V16.9224H12.3792V6.3456H14.3088V6.3444Z" fill="currentColor"/>
</svg>
