<svg viewBox="0 0 24 24" width="24" height="24" xmlns="http://www.w3.org/2000/svg" fill="currentColor">
    <path d="m22.6368 12.1947-9.3205 8.8584c-1.4339 1.3628-3.2775 1.9469-5.12111 1.9469s-3.68722-.6814-5.12113-1.9469c-2.765412-2.6283-2.765412-7.0089 0-9.6372l9.42284-8.95572c.9218-.87611 2.2533-1.46018 3.5848-1.46018s2.663.48673 3.5848 1.46018c2.0485 1.9469 2.0485 4.9646 0 6.9115l-9.4229 8.95572c-1.22903 1.1682-3.17506 1.1682-4.30171 0-.51211-.4867-.81938-1.2655-.81938-2.0442 0-.7788.30727-1.5575.9218-2.0443l8.70589-8.2743c.4097-.38938 1.0243-.38938 1.4339 0 .4097.38938.4097.97345 0 1.36283l-8.70587 8.27437c-.20485.1947-.30727.3894-.30727.6814s.10242.4867.30727.6814c.40969.3894 1.02422.3894 1.43391 0l9.42286-8.95575c1.2291-1.16814 1.2291-3.0177 0-4.0885-1.1266-1.07079-3.1751-1.07079-4.3017 0l-9.4229 8.95575c-2.04846 1.9469-2.04846 4.9646 0 6.9115 2.04845 1.9469 5.22355 1.9469 7.272 0l9.4229-8.9557c.4097-.3894 1.0242-.3894 1.4339 0 .4097.3893.3073.9734-.1024 1.3628z"/>
</svg>
