<svg viewBox="0 0 24 24" width="24" height="24" xmlns="http://www.w3.org/2000/svg" fill="currentColor">
    <path clip-rule="evenodd"
          d="m0 3v14h15 2 7v-4l-3.5-6h-3.5v-4zm2 2h13v2 8h-13zm15 4h2.352l2.648 4.541v1.459h-5zm-10 10h-2c-.552 0-1 .447-1 1s.448 1 1 1h2c.552 0 1-.447 1-1s-.448-1-1-1zm11 0h2c.553 0 1 .447 1 1s-.447 1-1 1h-2c-.553 0-1-.447-1-1s.447-1 1-1z"/>
</svg>
