<svg viewBox="0 0 24 24" width="24" height="24" xmlns="http://www.w3.org/2000/svg" fill="currentColor">
    <path fill-rule="evenodd"
          d="m4.18032 2h-3.18032c-.552285 0-1-.44772-1-1 0-.552285.447715-1 1-1h4c.47663 0 .88701.336385.98055.803743l.83988 4.196257h16.17957c.6274 0 1.0998.57104.9823 1.18733l-1.6015 8.39747c-.2831 1.4254-1.547 2.4429-2.9808 2.4152l-9.70084-.0002c-1.45292.0279-2.71689-.9896-2.99971-2.4135l-1.67066-8.34709c-.00678-.02762-.01241-.05568-.01684-.08413zm2.81968 19.0016c0 1.201.79935 2.0017 1.99837 2.0017 1.19903 0 1.99833-.8007 1.99833-2.0017 0-1.2009-.7993-2.0016-1.99833-2.0016-1.19902 0-1.99837.8007-1.99837 2.0016zm11-.0016c0 1.2.7993 2 1.9984 2 1.199 0 1.9983-.8 1.9983-2s-.7993-2-1.9983-2c-1.1991 0-1.9984.8-1.9984 2zm-9.33916-6.8048-1.44011-7.1952h14.57057l-1.3736 7.2027c-.0929.4676-.5142.8068-.9985.7975l-9.7392-.0002c-.50347.0095-.92479-.3297-1.01916-.8048z"/>
</svg>
