{
	"filter_result": {
		"title": "Найдено 60 вакансий",
		"sort": {
			"select": true,
			"placeholder": "Choose option",
			"name": "SELECT_WHITE",
			"size": "small",
			"options": [
				{
					"value": "sort",
					"text": "по соответствию",
					"selected": true
				},
				{
					"value": "opt1",
					"text": "Option 1"
				},
				{
					"value": "opt2",
					"text": "Option 2"
				},
				{
					"value": "opt3",
					"text": "Option 3"
				},
				{
					"value": "opt4",
					"text": "Option 4"
				}
			]
		},
		"result": {
			"items": [
				{
					"href": "!#",
					"tags": [
						"полная занятость",
						"полный день"
					],
					"title": "Директор предприятия",
					"desc": "АО «ЕВРОЦЕМЕНТ Груп»",
					"salary": "до 130 000 \u20BD",
					"category": "Управление персоналом",
					"date": "Москва, 23.03.2020"
				},
				{
					"tags": [
						"полная занятость",
						"полный день"
					],
					"title": "Главный специалист отдела трудовых отношений и учета персонала",
					"desc": "АО «ЕВРОЦЕМЕНТ Груп»",
					"salary": "до 130 000 \u20BD",
					"category": "Охрана труда и промышленная безопасность",
					"date": "Москва, 23.03.2020"
				},
				{
					"tags": [
						"полная занятость",
						"полный день"
					],
					"title": "Директор предприятия",
					"desc": "АО «ЕВРОЦЕМЕНТ Груп»",
					"salary": "до 130 000 \u20BD",
					"category": "Управление персоналом",
					"date": "Москва, 23.03.2020"
				},
				{
					"tags": [
						"полная занятость",
						"полный день"
					],
					"title": "Главный специалист отдела трудовых отношений и учета персонала",
					"desc": "АО «ЕВРОЦЕМЕНТ Груп»",
					"salary": "до 130 000 \u20BD",
					"category": "Охрана труда и промышленная безопасность",
					"date": "Москва, 23.03.2020"
				},
				{
					"tags": [
						"полная занятость",
						"полный день"
					],
					"title": "Директор предприятия",
					"desc": "АО «ЕВРОЦЕМЕНТ Груп»",
					"salary": "до 130 000 \u20BD",
					"category": "Управление персоналом",
					"date": "Москва, 23.03.2020"
				},
				{
					"tags": [
						"полная занятость",
						"полный день"
					],
					"title": "Главный специалист отдела трудовых отношений и учета персонала",
					"desc": "АО «ЕВРОЦЕМЕНТ Груп»",
					"salary": "до 130 000 \u20BD",
					"category": "Охрана труда и промышленная безопасность",
					"date": "Москва, 23.03.2020"
				},
				{
					"tags": [
						"полная занятость",
						"полный день"
					],
					"title": "Директор предприятия",
					"desc": "АО «ЕВРОЦЕМЕНТ Груп»",
					"salary": "до 130 000 \u20BD",
					"category": "Управление персоналом",
					"date": "Москва, 23.03.2020"
				}
			],
			"pagination": {
				"button": {
					"theme": "border-dark",
					"text": "Показать ещё",
					"attr": " data-some-additional-attributes='' "
				},
				"text": "Показано 7 из 60"
			}
		}
	}
}
