<svg width="66" height="64" viewBox="0 0 66 64" fill="none" xmlns="http://www.w3.org/2000/svg">
<path d="M9 21.9166L22.8796 8.61528C24.0579 7.4861 25.9227 7.50593 27.0767 8.65992L40.3333 21.9166" stroke="#242C32" stroke-width="2"/>
<path d="M56.3333 21.9166L43.0767 8.65992C41.9227 7.50593 40.0579 7.48609 38.8796 8.61527L33 14.2499" stroke="#242C32" stroke-width="2"/>
<path d="M1 21.9165H65L63.8969 28.2592C63.7303 29.2172 62.8989 29.9165 61.9265 29.9165H4.0735C3.10114 29.9165 2.26968 29.2172 2.10308 28.2592L1 21.9165Z" stroke="#F28610" stroke-width="2" stroke-linejoin="round"/>
<path d="M25 52.5832H41M14.3333 52.5832H11.9174C10.9893 52.5832 10.1831 51.9447 9.97053 51.0412L5 29.9165H61L56.0295 51.0412C55.8169 51.9447 55.0107 52.5832 54.0826 52.5832H51.6667" stroke="#F28610" stroke-width="2" stroke-linecap="round" stroke-linejoin="round"/>
<circle cx="46.3333" cy="52.5833" r="5.33333" stroke="#F28610" stroke-width="2" stroke-linecap="round" stroke-linejoin="round"/>
<circle cx="19.6666" cy="52.5833" r="5.33333" stroke="#F28610" stroke-width="2" stroke-linecap="round" stroke-linejoin="round"/>
</svg>
