<svg width="64" height="64" viewBox="0 0 64 64" fill="none" xmlns="http://www.w3.org/2000/svg">
<path d="M5.46667 9.59082H58.5333" stroke="#F28610" stroke-width="2" stroke-miterlimit="10" stroke-linecap="round" stroke-linejoin="round"/>
<path d="M32 59.6818V4.31812" stroke="#F28610" stroke-width="2" stroke-miterlimit="10" stroke-linecap="round" stroke-linejoin="round"/>
<path d="M44 33.3181L52 9.59082L60 33.3181" stroke="#F28610" stroke-width="2" stroke-miterlimit="10" stroke-linecap="round" stroke-linejoin="round"/>
<path d="M4 33.3181L12 9.59082L20 33.3181" stroke="#F28610" stroke-width="2" stroke-miterlimit="10" stroke-linecap="round" stroke-linejoin="round"/>
<path d="M21.3334 59.6816H42.6667" stroke="#F28610" stroke-width="2" stroke-miterlimit="10" stroke-linecap="round" stroke-linejoin="round"/>
<path d="M62.6667 33.3181C62.6667 39.1181 57.8667 43.8636 52 43.8636C46.1334 43.8636 41.3334 39.1181 41.3334 33.3181H62.6667Z" stroke="#242C32" stroke-width="2" stroke-miterlimit="10" stroke-linecap="round" stroke-linejoin="round"/>
<path d="M22.6667 33.3181C22.6667 39.1181 17.8667 43.8636 12 43.8636C6.13337 43.8636 1.33337 39.1181 1.33337 33.3181H22.6667Z" stroke="#242C32" stroke-width="2" stroke-miterlimit="10" stroke-linecap="round" stroke-linejoin="round"/>
</svg>
