{
  "menu": {
		"bar": {
			"hamburger": {
				"text": "Меню",
				"close_text": "Закрыть"
			},
			"main_button": {
				"href": "#",
				"icon": {
					"name": "24/edit"
				},
				"text": "Отправить резюме"
			},
			"button_list": [
				{
					"href": "#",
					"icon": {
						"name": "24/question"
					},
					"text": "Задать вопрос",
					"badge": {
						"text": "2"
					}
				}
			],
			"service_block": [
				{
					"href": "#",
					"text": "EN"
				}
			]
		},
		"content": {
			"logo": {
				"src": "img/logos/logo-color.svg",
				"href": "./",
				"alt": "alt"
			},
			"link_list": [
				{
					"main": true,
					"href": "mailto:job@eurocem.ru",
					"text": "job@eurocem.ru"
				},
				{
					"href": "#",
					"text": "Все контакты"
				},
				{
					"href": "#",
					"text": "!"
				}
			],
			"primary_nav": [
				{
					"href": "#",
					"text": "level1",
					"submenu": {
						"heading": {
							"text": "head1"
						},
						"items": [
							{
								"text": "level2"
							},
							{
								"text": "level2"
							},
							{
								"text": "level2"
							},
							{
								"text": "level2"
							},
							{
								"text": "level2"
							},
							{
								"text": "level2"
							},
							{
								"text": "level2"
							},
							{
								"text": "level2"
							},
							{
								"text": "level2"
							}
						]
					}
				},
				{
					"href": "#",
					"text": "level1"
				},
				{
					"text": "level1",
					"href": "#"
				},
				{
					"text": "level1"
				},
				{
					"text": "level1"
				},
				{
					"text": "level2",
					"submenu": {
						"heading": {
							"text": "head2"
						},
						"items": [
							{
								"text": "level2"
							},
							{
								"text": "level2"
							},
							{
								"text": "level2"
							}
						]
					}
				}
			],
			"secondary_nav": {
				"heading": {
					"text": "Информация"
				},
				"items": [
					{
						"text": "extra"
					},
					{
						"text": "extra"
					},
					{
						"text": "extra"
					}
				]
			},
			"social": [
				{
					"link": "#!",
					"icon": "social/fb",
					"name": "fb",
					"text": "Facebook"
				},
				{
					"link": "#!",
					"icon": "social/yt",
					"name": "yt",
					"text": "YouTube"
				},
				{
					"link": "#!",
					"icon": "social/vk",
					"name": "vk",
					"text": "VK"
				},
				{
					"link": "#!",
					"icon": "social/ok",
					"name": "ok",
					"text": "Одноклассники"
				}
			],
			"button_major_list": [
				{
					"href": "",
					"label": "Вакансии",
					"heading": "Профессионалам"
				},
				{
					"href": "",
					"label": "Вакансии",
					"heading": "Профессионалам"
				}
			]
		}
  }
}
