{
	"gallery_slider": {
		"items": [
			{
				"image": {
					"src": "tmp/block-images/gallery-slide.jpg",
					"alt": "image alt"
				},
				"text": "Настольный теннис. Чемпионат Компании «ЕВРОЦЕМЕНТ груп»",
				"date": "21.05.2019"
			},
			{
				"image": {
					"src": "tmp/card-story/card-story-1.jpg",
					"alt": "image alt"
				},
				"text": "Настольный теннис. Чемпионат Компании «ЕВРОЦЕМЕНТ груп» Настольный теннис. Чемпионат Компании «ЕВРОЦЕМЕНТ груп»",
				"date": "21.05.2019"
			}
		]
	}
}
