{
	"breadcrumb": [
		{
			"href": "./hr-main.html",
			"text": "Главная"
		},
		{
			"current": true,
			"href": "./hr-vacancies.html",
			"text": "Вакансии"
		}
	],
	"inputs_white": [
		{
			"input": true,
			"type": "text",
			"placeholder": "Input default",
			"name": "INPUT_DEFAULT"
		},
		{
			"input": true,
			"type": "text",
			"placeholder": "Input default disabled",
			"name": "INPUT_DISABLED",
			"disabled": true
		},
		{
			"input": true,
			"size": "small",
			"placeholder": "Input small",
			"name": "INPUT_SMALL"
		},
		{
			"input": true,
			"type": "text",
			"placeholder": "Input with helper",
			"name": "INPUT_HELP",
			"hint": {
				"mark": {
					"text": "?",
					"theme": ""
				},
				"tooltip": {
					"content": "Подсказка при наведении",
					"placement": "bottom",
					"theme": "white"
				}
			}

		},
		{
			"textarea": true,
			"placeholder": "Textarea",
			"name": "TEXTAREA_HELP",
			"hint": {
				"mark": {
					"text": "?",
					"theme": ""
				},
				"tooltip": {
					"content": "Подсказка при наведении",
					"placement": "bottom",
					"theme": "white"
				}
			}
		},
		{
			"select": true,
			"placeholder": "Choose option",
			"name": "SELECT_WHITE",
			"options": [
				{
					"value": "all",
					"text": "All options"
				},
				{
					"value": "opt1",
					"text": "Option 1"
				},
				{
					"value": "opt2",
					"text": "Option 2"
				},
				{
					"value": "opt3",
					"text": "Option 3"
				},
				{
					"value": "opt4",
					"text": "Option 4"
				},
				{
					"value": "opt5",
					"text": "Option 5"
				},
				{
					"value": "opt6",
					"text": "Option 6"
				},
				{
					"value": "opt7",
					"text": "Option 7"
				},
				{
					"value": "opt8",
					"text": "Option 8"
				},
				{
					"value": "opt9",
					"text": "Option 9"
				}
			]
		},
		{
			"select": true,
			"size": "small",
			"placeholder": "Choose option",
			"name": "SELECT_WHITE_SMALL",
			"options": [
				{
					"value": "all",
					"text": "All options"
				},
				{
					"value": "opt1",
					"text": "Option 1"
				},
				{
					"value": "opt2",
					"text": "Option 2"
				},
				{
					"value": "opt3",
					"text": "Option 3"
				}
			]
		},
		{
			"select": true,
			"search": true,
			"placeholder": "Search option",
			"name": "SELECT_WHITE_SEARCH",
			"options": [
				{
					"value": "all",
					"text": "All options"
				},
				{
					"value": "opt1",
					"text": "Option 1"
				},
				{
					"value": "opt2",
					"text": "Option 2"
				},
				{
					"value": "opt3",
					"text": "Option 3"
				}
			]
		},
		{
			"select": true,
			"search": true,
			"icon": "location",
			"placeholder": "Search option with icon",
			"name": "SELECT_WHITE_SEARCH",
			"options": [
				{
					"value": "all",
					"text": "All options"
				},
				{
					"value": "opt1",
					"text": "Option 1"
				},
				{
					"value": "opt2",
					"text": "Option 2"
				},
				{
					"value": "opt3",
					"text": "Option 3"
				}
			]
		},
		{
			"select": true,
			"disabled": true,
			"placeholder": "Search option",
			"name": "SELECT_WHITE_DISABLED",
			"options": [
				{
					"value": "all",
					"text": "All options"
				},
				{
					"value": "opt1",
					"text": "Option 1"
				},
				{
					"value": "opt2",
					"text": "Option 2"
				},
				{
					"value": "opt3",
					"text": "Option 3"
				}
			]
		}
	],
	"inputs_light": [
		{
			"input": true,
			"type": "text",
			"theme": "light",
			"placeholder": "Input default",
			"name": "INPUT_DEFAULT_LIGHT",
			"hint": {
				"mark": {
					"text": "?",
					"theme": ""
				},
				"tooltip": {
					"content": "Подсказка при наведении",
					"placement": "bottom",
					"theme": "light"
				}
			}
		},
		{
			"input": true,
			"type": "text",
			"size": "small",
			"theme": "light",
			"placeholder": "Input small",
			"name": "INPUT_SMALL_LIGHT",
			"hint": {
				"mark": {
					"text": "?",
					"theme": ""
				},
				"tooltip": {
					"content": "Подсказка при наведении",
					"placement": "bottom",
					"theme": "light"
				}
			}
		},
		{
			"select": true,
			"theme": "light",
			"placeholder": "Choose option",
			"name": "SELECT_WHITE",
			"options": [
				{
					"value": "all",
					"text": "All options"
				},
				{
					"value": "opt1",
					"text": "Option 1"
				},
				{
					"value": "opt2",
					"text": "Option 2"
				},
				{
					"value": "opt3",
					"text": "Option 3"
				}
			]
		},{
			"select": true,
			"size": "small",
			"theme": "light",
			"placeholder": "Choose option",
			"name": "SELECT_WHITE_SMALL",
			"options": [
				{
					"value": "all",
					"text": "All options"
				},
				{
					"value": "opt1",
					"text": "Option 1"
				},
				{
					"value": "opt2",
					"text": "Option 2"
				},
				{
					"value": "opt3",
					"text": "Option 3"
				}
			]
		}
	],
	"checkboxes_white": [
		{
			"checkbox": true,
			"name": "CHECKBOX_1_WHITE",
			"theme":"white",
			"text": "Checkbox label text"
		},
		{
			"checkbox": true,
			"name": "CHECKBOX_2_WHITE",
			"theme": "white",
			"text": "Checkbox label text"
		},
		{
			"checkbox": true,
			"disabled": true,
			"name": "CHECKBOX_DISABLED_WHITE",
			"theme": "white",
			"text": "Checkbox disabled text"
		}
	],
	"radiobuttons_white": [
		{
			"radio": true,
			"name": "RADIO_WHITE",
			"theme": "white",
			"text": "Checkbox label text"
		},
		{
			"radio": true,
			"name": "RADIO_WHITE",
			"theme": "white",
			"text": "Checkbox label text"
		}
	],
	"checkboxes_light": [
		{
			"checkbox": true,
			"theme": "light",
			"name": "CHECKBOX_1_LIGHT",
			"text": "Checkbox label text"
		},
		{
			"checkbox": true,
			"theme":  "light",
			"name": "CHECKBOX_2_LIGHT",
			"text": "Checkbox label text"
		},
		{
			"checkbox": true,
			"disabled": true,
			"theme":  "light",
			"name": "CHECKBOX_DISABLED_LIGHT",
			"text": "Checkbox disabled"
		}
	],
	"radiobuttons_light": [
		{
			"radio": true,
			"theme":  "light",
			"name": "RADIO_LIGHT",
			"text": "Checkbox label text"
		},
		{
			"radio": true,
			"theme":  "light",
			"name": "RADIO_LIGHT",
			"text": "Checkbox label text"
		}
	],
	"demo_fields": [
		{
			"input": true,
			"type": "text",
			"placeholder": "Имя",
			"name": "INPUT_NAME",
			"required": true,
			"hint": {
				"mark": {
					"text": "?",
					"theme": ""
				},
				"tooltip": {
					"content": "Подсказка при наведении",
					"placement": "bottom",
					"theme": "white"
				}
			}
		},
		{
			"input": true,
			"type": "email",
			"placeholder": "E-mail",
			"name": "INPUT_EMAIL",
			"required":  true
		},
		{
			"select": true,
			"placeholder": "Choose option",
			"name": "SELECT_DEMO",
			"required": true,
			"options": [
				{
					"value": "all",
					"text": "All options"
				},
				{
					"value": "opt1",
					"text": "Option 1"
				},
				{
					"value": "opt2",
					"text": "Option 2"
				},
				{
					"value": "opt3",
					"text": "Option 3"
				}
			]
		},
		{
			"checkbox": true,
			"name": "CHECKBOX_DEMO",
			"required":  true,
			"text": "Чек-бокс"
		}
	],
	"diagram_examples": [
		{
			"heading": "Структура персонала",
			"columns": false,
			"data": [
				{
					"label": "Производственный персонал",
					"value": "60",
					"text": "60%",
					"color": "#242C32",
					"icon": "24/quarry"
				},
				{
					"label": "инженерно-технические специалисты",
					"value": "35",
					"text": "35%",
					"color": "#E3350F",
					"icon": "24/edit-2"
				},
				{
					"label": "офисные сотрудники",
					"value": "5",
					"text": "5%",
					"color": "#F28610",
					"icon": "24/briefcase"
				}
			]
		},
		{
			"heading": "Возраст сотрудников",
			"columns": true,
			"data": [
				{
					"label": "до 35 лет",
					"value": "24",
					"text": "24%",
					"color": "#242C32"
				},
				{
					"label": "от 35 до 45 лет",
					"value": "32",
					"text": "32%",
					"color": "#E3350F"
				},
				{
					"label": "от 45 до 60 лет",
					"value": "40",
					"text": "40%",
					"color": "#F28610"
				},
				{
					"label": "от 60 лет",
					"value": "4",
					"text": "4%",
					"color": "#F7B670"
				}
			]
		},
		{
			"heading": "Образование сотрудников",
			"columns": true,
			"data": [
				{
					"label": "Среднее",
					"value": "37",
					"text": "37%",
					"color": "#242C32"
				},
				{
					"label": "Среднеспециальное",
					"value": "33",
					"text": "33%",
					"color": "#E3350F"
				},
				{
					"label": "Высшее",
					"value": "30",
					"text": "30%",
					"color": "#F28610"
				}
			]
		}
	]
}
