{
	"feature": {
		"icon": {
			"name": "64/heart"
		},
		"heading": "Гармония с природой",
		"content": {
			"text": "Lorem ipsum dolor sit amet, consectetur adipiscing elit, sed do eiusmod tempor incididunt ut labore et dolore magna aliqua.Lorem",
			"link_list": [
				{
					"href": "!#",
					"text": "link-text"
				}
			]
		}
	}
}
