{
	"card": {
		"href": "#",
		"image": {
			"src": "src/public/tmp/card-publication/card-publication.jpg",
			"alt": "image alt"
		},
		"tags": [
			{
				"href": "#",
				"text": "Наши люди"
			}
		],
		"text": "Генеральному директору «Кавказцемента» Олегу Лопатину присвоено звание «Заслуженный строитель»",
		"notes": [
			{
				"text": "23.03.2020"
			}
		]
	}
}
