{
	"block": {
		"content": {
			"text": "<h3>Практика <br> в «Евроцемент групп»</h3><p>Студенты последних курсов профильных ВУЗов ССУЗов могут пройти оплачиваемую производственную практику на предприятих компании.</p><h4>Практика у нас - это</h4><ul><li>Реальные проихводственные задания;</li><li>Личное участие в важных для компании проектах;</li><li>Советы опытных наставников;</li><li>Оплаченный проезд на завод;</li><li>Бесплатное проживание и питание;</li><li>Оплата за каждый день работы.</li></ul>",
			"factor_list": {
				"layout": "2",
				"items": [
					{
						"heading": "3330",
						"text": "студента прошли практику в 2019 г."
					},
					{
						"heading": "21",
						"text": "ССуз в 2019 году"
					},
					{
						"heading": "22",
						"text": "ВУЗа в 2019 г."
					}
				]
			},
			"image": {
				"src": "tmp/block-images/shutterstock.jpg",
				"srcset": [
					{
						"scale": "2",
						"src": "tmp/block-images/shutterstock@2x.jpg"
					}
				],
				"alt": "shutterstock",
				"lazy": true,
				"mob": {
					"srcset": [
						{
							"scale": "1",
							"src": "tmp/block-images/shutterstock-mob.jpg"
						},
						{
							"scale": "2",
							"src": "tmp/block-images/shutterstock-mob@2x.jpg"
						}
					]
				},
				"tab": {
					"srcset": [
						{
							"scale": "1",
							"src": "tmp/block-images/shutterstock-tab.jpg"
						},
						{
							"scale": "2",
							"src": "tmp/block-images/shutterstock-tab@2x.jpg"
						}
					]
				}
			}
		}
	}
}
